[{
  "id": 1,
  "fecha": "1/25/2019",
  "importe": 43,
  "latitud": 47.6515359,
  "longitud": 28.0469428,
  "ciudad": "Bilicenii Vechi"
}, {
  "id": 2,
  "fecha": "12/21/2018",
  "importe": 90,
  "latitud": 49.5053261,
  "longitud": 6.0202939,
  "ciudad": "Schifflange"
}, {
  "id": 3,
  "fecha": "9/16/2018",
  "importe": 70,
  "latitud": 59.5336088,
  "longitud": 18.0725818,
  "ciudad": "Vallentuna"
}, {
  "id": 4,
  "fecha": "12/14/2018",
  "importe": 98,
  "latitud": -34.8512671,
  "longitud": -58.6754654,
  "ciudad": "Esperanza"
}, {
  "id": 5,
  "fecha": "12/21/2018",
  "importe": 13,
  "latitud": 43.4903429,
  "longitud": 5.3378155,
  "ciudad": "Arbois"
}, {
  "id": 6,
  "fecha": "11/23/2018",
  "importe": 83,
  "latitud": 34.1840093,
  "longitud": 71.7791319,
  "ciudad": "Utmānzai"
}, {
  "id": 7,
  "fecha": "1/9/2019",
  "importe": 97,
  "latitud": 50.667396,
  "longitud": 3.0751792,
  "ciudad": "Marcq-en-Barœul"
}, {
  "id": 8,
  "fecha": "4/11/2018",
  "importe": 44,
  "latitud": 54.948864,
  "longitud": 31.0570797,
  "ciudad": "Rudnya"
}, {
  "id": 9,
  "fecha": "5/17/2018",
  "importe": 83,
  "latitud": -1.5697615,
  "longitud": 110.5215459,
  "ciudad": "Ketapang"
}, {
  "id": 10,
  "fecha": "11/20/2018",
  "importe": 41,
  "latitud": 48.0470083,
  "longitud": 28.8848809,
  "ciudad": "Zagnitkiv"
}, {
  "id": 11,
  "fecha": "1/30/2019",
  "importe": 60,
  "latitud": 59.8435756,
  "longitud": 10.8173713,
  "ciudad": "Oslo"
}, {
  "id": 12,
  "fecha": "6/5/2018",
  "importe": 59,
  "latitud": -25.586431,
  "longitud": -49.4052251,
  "ciudad": "Araucária"
}, {
  "id": 13,
  "fecha": "2/23/2019",
  "importe": 35,
  "latitud": -8.0475926,
  "longitud": 112.0118669,
  "ciudad": "Wonodadi"
}, {
  "id": 14,
  "fecha": "6/5/2018",
  "importe": 18,
  "latitud": 16.9633521,
  "longitud": -89.9262925,
  "ciudad": "San Andrés"
}, {
  "id": 15,
  "fecha": "6/1/2018",
  "importe": 27,
  "latitud": 49.5970348,
  "longitud": 16.041166,
  "ciudad": "Vlachovice"
}, {
  "id": 16,
  "fecha": "9/20/2018",
  "importe": 98,
  "latitud": 16.1344075,
  "longitud": 102.2090224,
  "ciudad": "Kaeng Khro"
}, {
  "id": 17,
  "fecha": "2/25/2019",
  "importe": 19,
  "latitud": 48.9763601,
  "longitud": 17.4746428,
  "ciudad": "Ostrožská Lhota"
}, {
  "id": 18,
  "fecha": "9/23/2018",
  "importe": 99,
  "latitud": 40.4832736,
  "longitud": 44.3852966,
  "ciudad": "Shenavan"
}, {
  "id": 19,
  "fecha": "6/4/2018",
  "importe": 75,
  "latitud": 34.5414989,
  "longitud": 133.5894821,
  "ciudad": "Kamogatachō-kamogata"
}, {
  "id": 20,
  "fecha": "3/31/2018",
  "importe": 75,
  "latitud": 39.7968818,
  "longitud": -74.9245946,
  "ciudad": "Damiku"
}, {
  "id": 21,
  "fecha": "4/21/2018",
  "importe": 23,
  "latitud": 49.9747505,
  "longitud": 16.40677,
  "ciudad": "Ústí nad Orlicí"
}, {
  "id": 22,
  "fecha": "9/30/2018",
  "importe": 11,
  "latitud": 37.4454804,
  "longitud": 59.1099161,
  "ciudad": "Dargaz"
}, {
  "id": 23,
  "fecha": "11/6/2018",
  "importe": 21,
  "latitud": 48.7823921,
  "longitud": 2.368326,
  "ciudad": "Villejuif"
}, {
  "id": 24,
  "fecha": "8/22/2018",
  "importe": 26,
  "latitud": 48.8809869,
  "longitud": 2.2760839,
  "ciudad": "Neuilly-sur-Seine"
}, {
  "id": 25,
  "fecha": "7/27/2018",
  "importe": 50,
  "latitud": -7.0345626,
  "longitud": 107.9836107,
  "ciudad": "Kudang"
}, {
  "id": 26,
  "fecha": "12/16/2018",
  "importe": 73,
  "latitud": -7.0425557,
  "longitud": 110.5096283,
  "ciudad": "Mranggen"
}, {
  "id": 27,
  "fecha": "1/20/2019",
  "importe": 32,
  "latitud": "31.93592",
  "longitud": "35.005",
  "ciudad": "Al Midyah"
}, {
  "id": 28,
  "fecha": "4/16/2018",
  "importe": 16,
  "latitud": -41.277848,
  "longitud": 174.7763921,
  "ciudad": "Kelburn"
}, {
  "id": 29,
  "fecha": "6/14/2018",
  "importe": 69,
  "latitud": 32.147679,
  "longitud": 114.091192,
  "ciudad": "Xinyang"
}, {
  "id": 30,
  "fecha": "8/4/2018",
  "importe": 71,
  "latitud": 32.147679,
  "longitud": 114.091192,
  "ciudad": "Xinyang"
}, {
  "id": 31,
  "fecha": "6/26/2018",
  "importe": 18,
  "latitud": 69.6811494,
  "longitud": 27.0796336,
  "ciudad": "Utsjoki"
}, {
  "id": 32,
  "fecha": "5/9/2018",
  "importe": 64,
  "latitud": 49.7266083,
  "longitud": 19.8365034,
  "ciudad": "Skomielna Czarna"
}, {
  "id": 33,
  "fecha": "8/30/2018",
  "importe": 48,
  "latitud": 24.098959,
  "longitud": 115.264182,
  "ciudad": "Laolong"
}, {
  "id": 34,
  "fecha": "2/3/2019",
  "importe": 24,
  "latitud": 59.2992508,
  "longitud": 18.0807417,
  "ciudad": "Johanneshov"
}, {
  "id": 35,
  "fecha": "1/12/2019",
  "importe": 67,
  "latitud": 10.0897999,
  "longitud": -66.784376,
  "ciudad": "Ocumare del Tuy"
}, {
  "id": 36,
  "fecha": "10/5/2018",
  "importe": 82,
  "latitud": 64.7360911,
  "longitud": 20.9791352,
  "ciudad": "Skellefteå"
}, {
  "id": 37,
  "fecha": "7/25/2018",
  "importe": 51,
  "latitud": -6.1425043,
  "longitud": 106.7985107,
  "ciudad": "Jembatandua"
}, {
  "id": 38,
  "fecha": "3/2/2019",
  "importe": 69,
  "latitud": 46.1298241,
  "longitud": 14.5577637,
  "ciudad": "Trzin"
}, {
  "id": 39,
  "fecha": "9/27/2018",
  "importe": 3,
  "latitud": 39.9863563,
  "longitud": -0.0513246,
  "ciudad": "Castellon De La Plana/Castello De La Pla"
}, {
  "id": 40,
  "fecha": "5/28/2018",
  "importe": 7,
  "latitud": 37.0259658,
  "longitud": 66.7784206,
  "ciudad": "Qarchī Gak"
}, {
  "id": 41,
  "fecha": "3/6/2018",
  "importe": 38,
  "latitud": 24.808198,
  "longitud": 118.03177,
  "ciudad": "Zhangxi"
}, {
  "id": 42,
  "fecha": "1/19/2019",
  "importe": 77,
  "latitud": 52.322296,
  "longitud": 18.3838669,
  "ciudad": "Licheń Stary"
}, {
  "id": 43,
  "fecha": "5/25/2018",
  "importe": 44,
  "latitud": 32.0005346,
  "longitud": -80.9760556,
  "ciudad": "Savannah"
}, {
  "id": 44,
  "fecha": "11/26/2018",
  "importe": 75,
  "latitud": 19.3267846,
  "longitud": -98.9145313,
  "ciudad": "El Mirador"
}, {
  "id": 45,
  "fecha": "12/6/2018",
  "importe": 6,
  "latitud": 31.2035483,
  "longitud": 30.5502219,
  "ciudad": "Fuwah"
}, {
  "id": 46,
  "fecha": "7/8/2018",
  "importe": 11,
  "latitud": 31.491169,
  "longitud": 120.31191,
  "ciudad": "Quxi"
}, {
  "id": 47,
  "fecha": "7/6/2018",
  "importe": 13,
  "latitud": 9.9356473,
  "longitud": -84.0792946,
  "ciudad": "Colima"
}, {
  "id": 48,
  "fecha": "8/30/2018",
  "importe": 70,
  "latitud": -20.4670046,
  "longitud": -55.7872944,
  "ciudad": "Aquidauana"
}, {
  "id": 49,
  "fecha": "3/23/2018",
  "importe": 38,
  "latitud": 10.796589,
  "longitud": -74.915036,
  "ciudad": "Baranoa"
}, {
  "id": 50,
  "fecha": "9/14/2018",
  "importe": 14,
  "latitud": 44.2147685,
  "longitud": 41.5683289,
  "ciudad": "Udobnaya"
}, {
  "id": 51,
  "fecha": "11/1/2018",
  "importe": 68,
  "latitud": -40.9084312,
  "longitud": -73.1661093,
  "ciudad": "Purranque"
}, {
  "id": 52,
  "fecha": "11/16/2018",
  "importe": 7,
  "latitud": 32.5741081,
  "longitud": -117.0553896,
  "ciudad": "Yujing"
}, {
  "id": 53,
  "fecha": "6/30/2018",
  "importe": 78,
  "latitud": 20.123518,
  "longitud": -101.1833267,
  "ciudad": "Las Flores"
}, {
  "id": 54,
  "fecha": "2/12/2019",
  "importe": 76,
  "latitud": 24.326292,
  "longitud": 109.428608,
  "ciudad": "Liuzuo"
}, {
  "id": 55,
  "fecha": "4/15/2018",
  "importe": 89,
  "latitud": 41.9227482,
  "longitud": -8.5332804,
  "ciudad": "Sobreiro"
}, {
  "id": 56,
  "fecha": "8/28/2018",
  "importe": 97,
  "latitud": 49.6325518,
  "longitud": 18.2841004,
  "ciudad": "Palkovice"
}, {
  "id": 57,
  "fecha": "5/20/2018",
  "importe": 31,
  "latitud": 39.5557317,
  "longitud": 21.7678951,
  "ciudad": "Tríkala"
}, {
  "id": 58,
  "fecha": "12/24/2018",
  "importe": 67,
  "latitud": 22.6166667,
  "longitud": 114.6702778,
  "ciudad": "Daya"
}, {
  "id": 59,
  "fecha": "1/4/2019",
  "importe": 76,
  "latitud": 4.392095,
  "longitud": -75.687434,
  "ciudad": "Córdoba"
}, {
  "id": 60,
  "fecha": "11/22/2018",
  "importe": 91,
  "latitud": 13.4686603,
  "longitud": -15.2589778,
  "ciudad": "Sutukung"
}, {
  "id": 61,
  "fecha": "7/29/2018",
  "importe": 46,
  "latitud": -21.2001343,
  "longitud": 24.8656498,
  "ciudad": "Mopipi"
}, {
  "id": 62,
  "fecha": "10/4/2018",
  "importe": 7,
  "latitud": 8.7069226,
  "longitud": -82.4861053,
  "ciudad": "Potrerillos Arriba"
}, {
  "id": 63,
  "fecha": "11/11/2018",
  "importe": 73,
  "latitud": 52.6057865,
  "longitud": 21.8949682,
  "ciudad": "Sokółka"
}, {
  "id": 64,
  "fecha": "3/15/2018",
  "importe": 8,
  "latitud": 33.766169,
  "longitud": 113.192661,
  "ciudad": "Pingdingshan"
}, {
  "id": 65,
  "fecha": "9/23/2018",
  "importe": 77,
  "latitud": -0.4359644,
  "longitud": 30.5729962,
  "ciudad": "Bwizibwera"
}, {
  "id": 66,
  "fecha": "12/9/2018",
  "importe": 33,
  "latitud": 17.0633593,
  "longitud": 107.0155599,
  "ciudad": "Hồ Xá"
}, {
  "id": 67,
  "fecha": "11/18/2018",
  "importe": 74,
  "latitud": 4.2743779,
  "longitud": -75.931004,
  "ciudad": "Sevilla"
}, {
  "id": 68,
  "fecha": "3/24/2018",
  "importe": 7,
  "latitud": -6.460817,
  "longitud": 108.298731,
  "ciudad": "Jujur"
}, {
  "id": 69,
  "fecha": "5/8/2018",
  "importe": 90,
  "latitud": -7.266667,
  "longitud": 111.866667,
  "ciudad": "Gudang"
}, {
  "id": 70,
  "fecha": "2/9/2019",
  "importe": 72,
  "latitud": 27.598453,
  "longitud": 114.174842,
  "ciudad": "Wanlongshan"
}, {
  "id": 71,
  "fecha": "4/15/2018",
  "importe": 100,
  "latitud": 42.040521,
  "longitud": 119.2987161,
  "ciudad": "Pingzhuang"
}, {
  "id": 72,
  "fecha": "1/4/2019",
  "importe": 11,
  "latitud": 43.4945737,
  "longitud": 5.8978018,
  "ciudad": "Paris 02"
}, {
  "id": 73,
  "fecha": "1/7/2019",
  "importe": 18,
  "latitud": 35.001453,
  "longitud": 99.262763,
  "ciudad": "Xia Dawo"
}, {
  "id": 74,
  "fecha": "6/7/2018",
  "importe": 94,
  "latitud": "-10.31",
  "longitud": "123.69983",
  "ciudad": "Oeri’u"
}, {
  "id": 75,
  "fecha": "2/24/2019",
  "importe": 33,
  "latitud": 22.521523,
  "longitud": 114.055023,
  "ciudad": "Futian"
}, {
  "id": 76,
  "fecha": "12/28/2018",
  "importe": 15,
  "latitud": 49.145018,
  "longitud": 1.0859715,
  "ciudad": "Noyon"
}, {
  "id": 77,
  "fecha": "3/6/2018",
  "importe": 16,
  "latitud": -25.2855091,
  "longitud": -57.1746259,
  "ciudad": "Atyrá"
}, {
  "id": 78,
  "fecha": "11/28/2018",
  "importe": 31,
  "latitud": 10.493002,
  "longitud": 123.713859,
  "ciudad": "Biasong"
}, {
  "id": 79,
  "fecha": "1/1/2019",
  "importe": 6,
  "latitud": 28.579409,
  "longitud": 110.090436,
  "ciudad": "Miaotang"
}, {
  "id": 80,
  "fecha": "9/11/2018",
  "importe": 86,
  "latitud": 43.981544,
  "longitud": 87.504934,
  "ciudad": "Anningqu"
}, {
  "id": 81,
  "fecha": "4/21/2018",
  "importe": 49,
  "latitud": -6.5096059,
  "longitud": 108.4543113,
  "ciudad": "Kedungwungu"
}, {
  "id": 82,
  "fecha": "3/21/2018",
  "importe": 55,
  "latitud": 11.3421375,
  "longitud": -73.0405277,
  "ciudad": "Ríohacha"
}, {
  "id": 83,
  "fecha": "8/1/2018",
  "importe": 14,
  "latitud": 40.1632626,
  "longitud": 44.2935926,
  "ciudad": "Ejmiatsin"
}, {
  "id": 84,
  "fecha": "4/28/2018",
  "importe": 7,
  "latitud": -29.3344108,
  "longitud": -49.723909,
  "ciudad": "Torres"
}, {
  "id": 85,
  "fecha": "9/16/2018",
  "importe": 36,
  "latitud": -7.698725,
  "longitud": 113.8465758,
  "ciudad": "Pasirputih"
}, {
  "id": 86,
  "fecha": "2/25/2019",
  "importe": 49,
  "latitud": 37.4968471,
  "longitud": 23.447887,
  "ciudad": "Galatás"
}, {
  "id": 87,
  "fecha": "9/20/2018",
  "importe": 45,
  "latitud": 43.4945737,
  "longitud": 5.8978018,
  "ciudad": "Paris 08"
}, {
  "id": 88,
  "fecha": "8/17/2018",
  "importe": 36,
  "latitud": 9.2610914,
  "longitud": 0.7770529,
  "ciudad": "Bassar"
}, {
  "id": 89,
  "fecha": "12/8/2018",
  "importe": 8,
  "latitud": 48.3000957,
  "longitud": 39.7430006,
  "ciudad": "Krasnodon"
}, {
  "id": 90,
  "fecha": "12/23/2018",
  "importe": 23,
  "latitud": 39.128502,
  "longitud": 113.139828,
  "ciudad": "Nieying"
}, {
  "id": 91,
  "fecha": "4/6/2018",
  "importe": 93,
  "latitud": 57.3356106,
  "longitud": 60.1281665,
  "ciudad": "Neyvo-Rudyanka"
}, {
  "id": 92,
  "fecha": "3/12/2018",
  "importe": 29,
  "latitud": 26.5153766,
  "longitud": 127.9179732,
  "ciudad": "Nakama"
}, {
  "id": 93,
  "fecha": "3/23/2018",
  "importe": 17,
  "latitud": 23.15998,
  "longitud": 113.327132,
  "ciudad": "Yantang"
}, {
  "id": 94,
  "fecha": "6/12/2018",
  "importe": 26,
  "latitud": -9.5179699,
  "longitud": 119.0983524,
  "ciudad": "Waiholo"
}, {
  "id": 95,
  "fecha": "9/16/2018",
  "importe": 58,
  "latitud": 25.7357116,
  "longitud": -80.3992652,
  "ciudad": "Miami"
}, {
  "id": 96,
  "fecha": "7/25/2018",
  "importe": 17,
  "latitud": 55.830186,
  "longitud": 37.4457899,
  "ciudad": "Krasnyy Oktyabr’"
}, {
  "id": 97,
  "fecha": "3/4/2019",
  "importe": 31,
  "latitud": 56.4815673,
  "longitud": 84.8815961,
  "ciudad": "Timiryazevskoye"
}, {
  "id": 98,
  "fecha": "6/25/2018",
  "importe": 94,
  "latitud": 19.6092712,
  "longitud": -72.2134308,
  "ciudad": "Milot"
}, {
  "id": 99,
  "fecha": "10/10/2018",
  "importe": 99,
  "latitud": 30.4333333,
  "longitud": 117.8333333,
  "ciudad": "Jiuhua"
}, {
  "id": 100,
  "fecha": "10/1/2018",
  "importe": 30,
  "latitud": 37.0657211,
  "longitud": 136.7827153,
  "ciudad": "Komoro"
}]
